r_basico
…
Operações sequenciais

selecionar as minhas colunas de interesse (Parcela e Abundancia)

agrupar pelo tipo de parcela

somar os valores de cada grupo

dados |> 
  select(Parcela, Abundancia) |> 
  group_by(Parcela) |> 
  summarize_all(sum) 

# A tibble: 97 × 2
   Parcela Abundancia
   <chr>        <int>
 1 A1-P01C        135
 2 A1-P02C          0
 3 A1-P03C          4
 4 A1-P04C          4
 5 A1-P05C         42
 6 A1-P06C         17
 7 A1-P07C         86
 8 A1-P08C         61
 9 A1-P09C         52
10 A1-P10C         25
# ℹ 87 more rows

Operações sequenciais

Se eu quiser ordenar as abundâncias por ordem crescente, basta incluir a função arrange() na minha sequência de comandos, especificando qual coluna para organizar

dados |> 
  select(Parcela, Abundancia) |> 
  group_by(Parcela) |> 
  summarize_all(sum) |> 
  arrange(Abundancia)

# A tibble: 97 × 2
   Parcela  Abundancia
   <chr>         <int>
 1 A1-P02C           0
 2 A1-P15FL          0
 3 A1-P17FL          0
 4 A2-P21C           0
 5 A2-P30C           0
 6 A3-P36C           0
 7 A3-P40C           0
 8 A3-P42C           0
 9 B1-P49C           0
10 B1-P50C           0
# ℹ 87 more rows

Operações sequenciais

Se eu quiser ordenar as abundâncias por ordem crescente, basta incluir a função arrange() na minha sequência de comandos, especificando qual coluna para organizar

Para ordem descrescente é necessário incluir a função desc() dentro da arrange()

dados |> 
  select(Parcela, Abundancia) |> 
  group_by(Parcela) |> 
  summarize_all(sum) |> 
  arrange(desc(Abundancia))

# A tibble: 97 × 2
   Parcela  Abundancia
   <chr>         <int>
 1 A3-P35C         186
 2 A2-P23C         184
 3 C-P86C          180
 4 A2-P20FL        142
 5 A1-P01C         135
 6 A2-P28C         107
 7 A2-P25C          94
 8 A1-P07C          86
 9 A2-P31FL         80
10 A1-P08C          61
# ℹ 87 more rows
…
Transformação de dados long/wide

Podemos organizar os dados em dois formatos básicos:

Long: os dados são discriminados mais detalhadamente ao longo das linhas

Wide: os dados são discriminados mais detalhadamente ao longo das colunas

dados

# A tibble: 97 × 36
   Parcela `Adenomera kayapo` `Allobates carajas` `Boana multifasciata`
   <fct>                <int>               <int>                 <int>
 1 A1-P01C                  9                   8                     2
 2 A1-P02C                  0                   0                     0
 3 A1-P03C                  1                   0                     0
 4 A1-P04C                  0                   0                     0
 5 A1-P05C                  4                   0                     0
 6 A1-P06C                  5                   0                     1
 7 A1-P07C                  0                   0                     0
 8 A1-P08C                  0                   0                     2
 9 A1-P09C                  0                   0                     0
10 A1-P10C                  0                   0                     0
# ℹ 87 more rows
# ℹ 32 more variables: `Dendropsophus minusculus` <int>,
#   `Dendropsophus minutus` <int>, `Osteocephalus taurinus` <int>,
#   `Physalaemus ephippifer` <int>, `Pithecopus hypochondrialis` <int>,
#   `Pseudopaludicola canga` <int>, `Rhinella mirandaribeiroi` <int>,
#   `Scinax fuscomarginatus` <int>, `Scinax ruber` <int>, ESO <int>,
#   `Pristimantis aff. fenestratus` <int>, `Ameerega flavopicta` <int>, …
…
